[05-01-2006 03:11:52] -!- awormus_ [n=aaron@p54B111FA.dip0.t-ipconnect.de] has joined #ezpublish
[05-01-2006 03:29:18] -!- awormus [n=aaron@p54B139AB.dip0.t-ipconnect.de] has quit [Read error: 110 (Connection timed out)]
[05-01-2006 03:33:31] [#ezpublish] * awormus_ wonders when ez.no will be back
[05-01-2006 03:33:35] -!- awormus_ is now known as awormus
[05-01-2006 03:39:13] -!- buz [n=buz@217-162-135-182.dclient.hispeed.ch] has joined #ezpublish
[05-01-2006 03:40:19] [#ezpublish] * awormus hits refresh
[05-01-2006 03:44:40] -!- _kore [n=lordhong@port-83-236-9-237.dynamic.qsc.de] has joined #ezpublish
[05-01-2006 04:50:19] -!- _buz [n=buz@dhcp-202-23-vpn.unizh.ch] has joined #ezpublish
[05-01-2006 05:05:56] -!- buz [n=buz@217-162-135-182.dclient.hispeed.ch] has quit [Read error: 110 (Connection timed out)]
[05-01-2006 06:11:28] [#ezpublish] <_buz> will anyone be at orbit-iex in zurich?
[05-01-2006 06:12:39] [#ezpublish] <_buz> (i know someone from ez will be ;)
[05-01-2006 06:13:31] [#ezpublish] <awormus> not me :D
[05-01-2006 06:14:01] [#ezpublish] <_buz> it's very close to here but in the past usually rather boring event
[05-01-2006 06:23:09] -!- nnn0 [n=therion@unaffiliated/nnn0] has quit ["ehehe ;"]
[05-01-2006 08:29:22] -!- tobmaster [n=tobmaste@dslb-084-061-073-169.pools.arcor-ip.net] has joined #ezpublish
[05-01-2006 08:45:16] -!- tobiS [n=tobmaste@dslb-084-061-070-088.pools.arcor-ip.net] has joined #ezpublish
[05-01-2006 09:00:56] -!- tobmaster [n=tobmaste@dslb-084-061-073-169.pools.arcor-ip.net] has quit [Read error: 110 (Connection timed out)]
[05-01-2006 09:03:04] -!- kracker [n=kracker@ip23.131.realtime.net] has joined #ezpublish
[05-01-2006 09:43:29] -!- kore__ [n=lordhong@port-83-236-9-237.dynamic.qsc.de] has joined #ezpublish
[05-01-2006 09:58:22] -!- t0bmaster [n=tobmaste@dslb-084-061-013-235.pools.arcor-ip.net] has joined #ezpublish
[05-01-2006 10:14:01] -!- tobiS [n=tobmaste@dslb-084-061-070-088.pools.arcor-ip.net] has quit [Read error: 110 (Connection timed out)]
[05-01-2006 12:07:47] -!- t0bmaster [n=tobmaste@dslb-084-061-013-235.pools.arcor-ip.net] has quit ["Thx 4 all the fisch"]
[05-01-2006 12:12:23] [#ezpublish] * awormus just signed up for the conf :D
[05-01-2006 12:19:42] -!- zrg [n=zurgutt@217-159-153-69-dsl.kt.estpak.ee] has joined #ezpublish
[05-01-2006 12:28:37] -!- _buz [n=buz@dhcp-202-23-vpn.unizh.ch] has quit [Read error: 113 (No route to host)]
[05-01-2006 12:50:50] -!- nnn0 [n=nnn0@unaffiliated/nnn0] has joined #ezpublish
[05-01-2006 13:18:43] -!- kore__ [n=lordhong@port-83-236-9-237.dynamic.qsc.de] has quit []
[05-01-2006 16:19:13] -!- awormus [n=aaron@p54B111FA.dip0.t-ipconnect.de] has quit [Read error: 54 (Connection reset by peer)]
[05-01-2006 17:17:25] -!- _kore [n=lordhong@port-83-236-9-237.dynamic.qsc.de] has quit [Remote closed the connection]
