[03-26-2006 00:38:37] -!- xbit_ [i=birger@ritchie.ping.uio.no] has joined #ezpublish
[03-26-2006 00:38:38] -!- xbit [i=birger@ritchie.ping.uio.no] has quit [Read error: 104 (Connection reset by peer)]
[03-26-2006 01:37:31] -!- buz [n=buz@80-218-105-74.dclient.hispeed.ch] has joined #ezpublish
[03-26-2006 02:36:20] -!- elephantMan [n=elephant@88.205.103-84.rev.gaoland.net] has quit [Read error: 110 (Connection timed out)]
[03-26-2006 03:43:58] -!- _kore [n=lordhong@port-83-236-9-237.dynamic.qsc.de] has joined #ezpublish
[03-26-2006 03:57:15] -!- ordnas [n=ordnas@p549D70D5.dip.t-dialin.net] has joined #ezpublish
[03-26-2006 03:57:20] -!- ordnas [n=ordnas@p549D70D5.dip.t-dialin.net] has quit [Read error: 104 (Connection reset by peer)]
[03-26-2006 08:01:51] -!- tobmaster [n=tobmaste@dslb-084-061-003-066.pools.arcor-ip.net] has joined #ezpublish
[03-26-2006 09:15:26] -!- buz [n=buz@80-218-105-74.dclient.hispeed.ch] has quit [Remote closed the connection]
[03-26-2006 09:19:18] -!- buz [n=buz@80-218-105-74.dclient.hispeed.ch] has joined #ezpublish
[03-26-2006 10:44:38] -!- tobmaster [n=tobmaste@dslb-084-061-003-066.pools.arcor-ip.net] has quit ["Thx 4 all the fisch"]
[03-26-2006 11:33:20] -!- hovik [n=hovik@226.80-202-59.nextgentel.com] has joined #ezpublish
[03-26-2006 14:49:10] -!- buz [n=buz@80-218-105-74.dclient.hispeed.ch] has quit ["Konversation terminated!"]
[03-26-2006 16:54:15] -!- _kore [n=lordhong@port-83-236-9-237.dynamic.qsc.de] has quit [""The Flag is a symbol of the fact that man is still a herd animal.""]
[03-26-2006 23:49:19] -!- _Rappy_ [n=hunt-pre@80-89-35-2.network.itconnect.no] has joined #ezpublish
